{
	"m3.medium":0.095,
	"m3.large":0.19,
	"m3.xlarge":0.381,
	"m3.2xlarge":0.761,
	"c4.8xlarge":2.098,
	"c3.large":0.163,
	"c3.xlarge":0.325,
	"c3.2xlarge":0.65,
	"c3.4xlarge":1.3,
	"c3.8xlarge":2.6,
	"r3.large":	0.163,
	"r3.xlarge":0.325,
	"r3.2xlarge":0.65,
	"r3.4xlarge":1.3,
	"r3.8xlarge":2.6
}
